Лабораторная работа 3. Задание 2. Вариант 6
…
Возвращает: построенный график

build_cord_graph <- function(data, x_data, y_data, fill_data, label_data, title, x_title, y_title, fill_title)  {
  ggplot(data, aes(x = x_data, y = y_data, group = fill_data)) + 
    geom_col(aes(fill = fill_data)) +
    xlab(x_title) + ylab(y_title) +
    ggtitle(title) + scale_fill_discrete(name = fill_title) + coord_flip() +
    geom_text(aes(label = label_data), position = position_stack(vjust = 0.5))
}

Преобразование данных к формату tidydata

regions = create_data(ExpImp)

## # A tibble: 47 x 13
##    Регион    ПродЭкспорт  ПродИмпорт  ТЭКЭкспорт ТЭКИмпорт ХимЭкспорт  ХимИмпорт
##    <chr>     <chr>        <chr>       <chr>      <chr>     <chr>           <dbl>
##  1 Белгород~ 221.9        613.799999~ 64.7       24.1      33.2999999~     243. 
##  2 Брянская~ 28.5         650.299999~ 5          20.5      24.5             71.7
##  3 Владимир~ 177.9        454.3       0.9        16.7      87.7            419  
##  4 Воронежс~ 373.7        181.9       38.9       38        976.9            84.9
##  5 Ивановск~ 3.1          105.5       0.1        0.1       40.7999999~      57.4
##  6 Калужска~ 20.9         184.6       14         57.9      54.9            370. 
##  7 Костромс~ 0.7          6.8         0          -         19.3             10.2
##  8 Курская ~ 139.6        218.8       -          17.7      77.2            118. 
##  9 Липецкая~ 161.8000000~ 301         49.8       107.9     6.8             218. 
## 10 Московск~ 773.6        3829.9      1400.2     156.4     871.1          5632. 
## # ... with 37 more rows, and 6 more variables: ДревЭкспорт <chr>,
## #   ДревИмпорт <dbl>, МетЭкспорт <chr>, МетИмпорт <dbl>, МашЭкспорт <chr>,
## #   МашИмпорт <dbl>
…
